…
### Iterate!!

Repeat the data for bunch of random partitions

``` r
# generate a bunch of partitions: give the dataset and number of the time you want to repeat the training test split, and each time do it at random, by fault to have 80% of the dataset for traning date, 20% of the datase for test data
cv_df = 
  crossv_mc(nonlin_df, 100) 
```

``` r
cv_df %>% pull(train) %>% .[[1]] %>% as_tibble()
## # A tibble: 79 x 3
##       id     x       y
##    <int> <dbl>   <dbl>
##  1     1 0.266  1.11  
##  2     2 0.372  0.764 
##  3     3 0.573  0.358 
##  4     5 0.202  1.33  
##  5     7 0.945 -3.27  
##  6     8 0.661 -0.615 
##  7     9 0.629  0.0878
##  8    11 0.206  1.63  
##  9    12 0.177  0.836 
## 10    14 0.384  0.938 
## # ... with 69 more rows
cv_df %>% pull(test) %>% .[[5]] %>% as_tibble()
## # A tibble: 21 x 3
##       id     x      y
##    <int> <dbl>  <dbl>
##  1     1 0.266  1.11 
##  2     5 0.202  1.33 
##  3    11 0.206  1.63 
##  4    13 0.687 -0.291
##  5    31 0.482  0.498
##  6    39 0.724 -0.684
##  7    48 0.477  0.514
##  8    52 0.861 -2.14 
##  9    62 0.294  0.861
## 10    64 0.332  0.794
## # ... with 11 more rows
```
…
